{
	"mainCatalogueFilterList":
	[
		{
			"filterName":"availability",
			"filterValueList":
			[
				{"code":"IN","desc":"In Stock"},
				{"code":"OUT","desc":"Out of Stock"}
			]
		},
		{
			"filterName":"itemgroup",
			"filterValueList":
			[
				{"code":"*","desc":"All"},
				{"code":"DOM","desc":"Domestic appliances"},
				{"code":"OFF","desc":"Office equipment"},
				{"code":"CON","desc":"Consumables"},
				{"code":"PRD","desc":"Prod. materials / components"},
				{"code":"SVC","desc":"Service parts / tools / kits"},
				{"code":"LAB","desc":"Labour                   (SVC)"},
				{"code":"EXP","desc":"Expenses                 (SVC)"},
				{"code":"AGR","desc":"Service Agreement        (SVC)"},
				{"code":"BOP","desc":"Bang \u0026 Olufsen"},
				{"code":"ENDIT","desc":"End Item group"},
				{"code":"MFCMP","desc":"Manuf, components"},
				{"code":"MFSUB","desc":"Manuf, subassembly"},
				{"code":"LAND1","desc":"Landed Costs 1"},
				{"code":"LAND2","desc":"Landed Costs 2"},
				{"code":"LAND3","desc":"Landed Costs 3"},
				{"code":"MFEND","desc":"Manuf, end items"},
				{"code":"MFCOL","desc":"Volvo colour"},
				{"code":"MFWHE","desc":"Wheel"},
				{"code":"MFBAS","desc":"Chassis, door etc"},
				{"code":"ACC","desc":"Accessories"},
				{"code":"SMS","desc":"SMS rebate claim items"},
				{"code":"PAN","desc":"Final Product - Pankaj"},
				{"code":"NEE00","desc":"Neeraj\u0027s item group *DFT"},
				{"code":"DGH","desc":"Dangerous goods"},
				{"code":"RST1","desc":"Restriction group 1"},
				{"code":"RST2","desc":"Restriction group 2"},
				{"code":"NEE01","desc":"Neeraj\u0027s rebated items"},
				{"code":"SECX","desc":"Securitas"},
				{"code":"HF001","desc":"Hifi 001"},
				{"code":"HF002","desc":"Hifi 002"},
				{"code":"HF003","desc":"Hifi 003"},
				{"code":"MFEN2","desc":"Manuf, end items"},
				{"code":"SAN01","desc":"SANJAY\u0027S ITEM GROUP"},
				{"code":"MFEN5","desc":"Manuf, end items"},
				{"code":"ADE00","desc":"Arun deodas\u0027s item group"},
				{"code":"AGRP1","desc":"Arun deodas\u0027s item group TEST"},
				{"code":"SOP01","desc":"Item gr SOP01"},
				{"code":"SOP02","desc":"Item gr SOP02"},
				{"code":"GUE","desc":"Gunnel Test item group"},
				{"code":"OLLE1","desc":"Olle\u0027s"},
				{"code":"OLLE2","desc":"Olle\u0027s"},
				{"code":"MFEN6","desc":"Manuf, end items"},
				{"code":"MFEN7","desc":"Manuf, end items"},
				{"code":"MFEN8","desc":"Manuf, end items"},
				{"code":"FSOP1","desc":"FSOP item group 01"},
				{"code":"C2098","desc":"SP  - MEHTEST"},
				{"code":"ABHI1","desc":"Gunnel Test item group"},
				{"code":"SDISC","desc":"sten test discontinued items"},
				{"code":"MECM2","desc":"components II"},
				{"code":"MEWHE","desc":"Manuf, end items"}
			]
		}
	]
}